<svg width="133" height="143" viewBox="0 0 133 143" fill="none" xmlns="http://www.w3.org/2000/svg">
<rect x="0.75" y="0.75" width="131.5" height="141.5" rx="17.25" stroke="black" stroke-width="1.5"/>
<path d="M43.8129 109.918C44.6716 110.413 45.1009 111.159 45.1009 112.158C45.1009 112.989 44.8069 113.67 44.2189 114.202C43.6309 114.734 42.9076 115 42.0489 115H37.8909V105.2H41.7549C42.5949 105.2 43.2996 105.461 43.8689 105.984C44.4476 106.497 44.7369 107.155 44.7369 107.958C44.7369 108.77 44.4289 109.423 43.8129 109.918ZM41.7549 107.006H39.8229V109.162H41.7549C42.0536 109.162 42.3009 109.059 42.4969 108.854C42.7023 108.649 42.8049 108.392 42.8049 108.084C42.8049 107.776 42.7069 107.519 42.5109 107.314C42.3149 107.109 42.0629 107.006 41.7549 107.006ZM42.0489 113.194C42.3756 113.194 42.6463 113.087 42.8609 112.872C43.0756 112.648 43.1829 112.368 43.1829 112.032C43.1829 111.705 43.0756 111.435 42.8609 111.22C42.6463 110.996 42.3756 110.884 42.0489 110.884H39.8229V113.194H42.0489ZM46.5635 115V104.78H48.3695V115H46.5635ZM51.1985 107.16C50.8998 107.16 50.6385 107.053 50.4145 106.838C50.1998 106.614 50.0925 106.353 50.0925 106.054C50.0925 105.755 50.1998 105.494 50.4145 105.27C50.6385 105.046 50.8998 104.934 51.1985 104.934C51.5065 104.934 51.7678 105.046 51.9825 105.27C52.2065 105.494 52.3185 105.755 52.3185 106.054C52.3185 106.353 52.2065 106.614 51.9825 106.838C51.7678 107.053 51.5065 107.16 51.1985 107.16ZM50.3025 115V108H52.1085V115H50.3025ZM57.9335 107.804C58.6988 107.804 59.3288 108.061 59.8235 108.574C60.3275 109.087 60.5795 109.797 60.5795 110.702V115H58.7735V110.926C58.7735 110.459 58.6475 110.105 58.3955 109.862C58.1435 109.61 57.8075 109.484 57.3875 109.484C56.9208 109.484 56.5475 109.629 56.2675 109.918C55.9875 110.207 55.8475 110.641 55.8475 111.22V115H54.0415V108H55.8475V108.784C56.2861 108.131 56.9815 107.804 57.9335 107.804ZM67.7075 105.2H69.5135V115H67.7075V114.174C67.1755 114.855 66.4195 115.196 65.4395 115.196C64.4969 115.196 63.6895 114.841 63.0175 114.132C62.3549 113.413 62.0235 112.536 62.0235 111.5C62.0235 110.464 62.3549 109.591 63.0175 108.882C63.6895 108.163 64.4969 107.804 65.4395 107.804C66.4195 107.804 67.1755 108.145 67.7075 108.826V105.2ZM64.3755 112.928C64.7489 113.292 65.2155 113.474 65.7755 113.474C66.3355 113.474 66.7975 113.292 67.1615 112.928C67.5255 112.555 67.7075 112.079 67.7075 111.5C67.7075 110.921 67.5255 110.45 67.1615 110.086C66.7975 109.713 66.3355 109.526 65.7755 109.526C65.2155 109.526 64.7489 109.713 64.3755 110.086C64.0115 110.45 63.8295 110.921 63.8295 111.5C63.8295 112.079 64.0115 112.555 64.3755 112.928ZM76.7652 108H78.5712V115H76.7652V114.174C76.2239 114.855 75.4632 115.196 74.4832 115.196C73.5499 115.196 72.7472 114.841 72.0752 114.132C71.4126 113.413 71.0812 112.536 71.0812 111.5C71.0812 110.464 71.4126 109.591 72.0752 108.882C72.7472 108.163 73.5499 107.804 74.4832 107.804C75.4632 107.804 76.2239 108.145 76.7652 108.826V108ZM73.4332 112.928C73.7972 113.292 74.2592 113.474 74.8192 113.474C75.3792 113.474 75.8412 113.292 76.2052 112.928C76.5786 112.555 76.7652 112.079 76.7652 111.5C76.7652 110.921 76.5786 110.45 76.2052 110.086C75.8412 109.713 75.3792 109.526 74.8192 109.526C74.2592 109.526 73.7972 109.713 73.4332 110.086C73.0692 110.45 72.8872 110.921 72.8872 111.5C72.8872 112.079 73.0692 112.555 73.4332 112.928ZM85.7949 105.2H87.6009V115H85.7949V114.174C85.2629 114.855 84.5069 115.196 83.5269 115.196C82.5842 115.196 81.7769 114.841 81.1049 114.132C80.4422 113.413 80.1109 112.536 80.1109 111.5C80.1109 110.464 80.4422 109.591 81.1049 108.882C81.7769 108.163 82.5842 107.804 83.5269 107.804C84.5069 107.804 85.2629 108.145 85.7949 108.826V105.2ZM82.4629 112.928C82.8362 113.292 83.3029 113.474 83.8629 113.474C84.4229 113.474 84.8849 113.292 85.2489 112.928C85.6129 112.555 85.7949 112.079 85.7949 111.5C85.7949 110.921 85.6129 110.45 85.2489 110.086C84.8849 109.713 84.4229 109.526 83.8629 109.526C83.3029 109.526 82.8362 109.713 82.4629 110.086C82.0989 110.45 81.9169 110.921 81.9169 111.5C81.9169 112.079 82.0989 112.555 82.4629 112.928ZM95.4966 114.132C94.7779 114.841 93.9006 115.196 92.8646 115.196C91.8286 115.196 90.9512 114.841 90.2326 114.132C89.5232 113.413 89.1686 112.536 89.1686 111.5C89.1686 110.464 89.5232 109.591 90.2326 108.882C90.9512 108.163 91.8286 107.804 92.8646 107.804C93.9006 107.804 94.7779 108.163 95.4966 108.882C96.2152 109.591 96.5746 110.464 96.5746 111.5C96.5746 112.536 96.2152 113.413 95.4966 114.132ZM91.5066 112.886C91.8706 113.25 92.3232 113.432 92.8646 113.432C93.4059 113.432 93.8586 113.25 94.2226 112.886C94.5866 112.522 94.7686 112.06 94.7686 111.5C94.7686 110.94 94.5866 110.478 94.2226 110.114C93.8586 109.75 93.4059 109.568 92.8646 109.568C92.3232 109.568 91.8706 109.75 91.5066 110.114C91.1519 110.478 90.9746 110.94 90.9746 111.5C90.9746 112.06 91.1519 112.522 91.5066 112.886Z" fill="#404040"/>
<path d="M104.295 38.3022C101.656 36.7063 99.101 37.5883 96.7593 39.5202C96.589 39.1422 96.4612 38.8062 96.2909 38.5122C95.0562 35.7823 93.864 33.0944 92.5867 30.4065C90.6282 26.0807 87.2646 23.7707 82.5811 23.0988C79.473 22.6368 76.3223 22.4268 73.2142 22.3008C73.2142 22.3428 73.2142 22.4268 73.2142 22.4688C74.1083 22.5528 74.747 22.8888 75.1301 23.2247C75.6836 23.6867 76.3649 24.5687 76.3649 26.1226C76.3649 29.5245 76.3649 32.9684 76.3649 36.3703V44.224C76.3649 47.2059 76.3649 50.1878 76.3649 53.1697C76.3649 57.2856 75.045 61.0654 72.4052 64.4253C70.1061 67.3232 67.1682 69.7171 62.8254 72.2371C62.7402 72.2791 62.6551 72.3631 62.5273 72.405V72.447H91.2243C91.2243 73.455 91.2243 74.337 91.2243 75.219C91.2668 77.4449 92.7145 78.9148 94.971 78.9568C96.4612 78.9988 97.9514 78.9988 99.4416 78.9568C101.869 78.9148 103.359 77.4869 103.359 75.051C103.359 68.8772 103.359 62.7454 103.359 56.5716C103.359 53.6737 102.465 50.9858 100.974 48.5079C100.804 48.2559 100.676 48.0039 100.549 47.7519C101.698 47.5419 102.805 47.4579 103.827 47.0799C104.934 46.6599 105.7 45.694 105.786 44.518C105.913 42.3341 106.68 39.7302 104.295 38.3022ZM89.5212 59.3015C88.8825 59.2595 88.2439 59.3015 87.6052 59.3015C86.4982 59.3015 85.3912 59.3015 84.3268 59.3015C82.794 59.2595 81.7296 58.3775 81.4315 56.9916C81.1335 55.6056 81.8147 54.0937 83.2198 53.6737C85.6892 52.9177 88.2013 52.2877 90.7133 51.7418C92.1184 51.4478 93.5234 52.5817 93.8215 54.0097C93.864 54.2617 93.9066 54.4717 93.9066 54.7237C94.0344 57.5796 93.8215 59.5955 89.5212 59.3015Z" fill="#404040"/>
<path fill-rule="evenodd" clip-rule="evenodd" d="M73.386 53.1709V44.2252L73.4286 36.3295V26.0818C73.4286 25.7458 73.3434 25.5358 73.2583 25.4518C73.1731 25.3678 72.9176 25.3259 72.577 25.4098C71.5978 25.6198 70.7462 25.7038 69.9798 25.7458C67.3826 25.8718 64.828 25.7458 62.316 25.2839C60.8683 25.0319 59.4633 24.6959 58.1008 24.2759C56.2274 23.6879 54.0134 22.8899 52.2252 21.294C51.7994 20.916 51.7143 20.874 51.0756 21.336C49.9686 22.134 48.9894 22.7219 48.0527 23.1839C44.9445 24.6119 41.4106 25.4518 37.1955 25.7038C35.3221 25.8298 33.1507 25.8718 30.9367 25.4518C30.7238 25.4098 30.5961 25.4098 30.4683 25.4098C30.3548 25.4098 30.2791 25.4285 30.2287 25.441C30.2034 25.4472 30.1845 25.4518 30.1703 25.4518C30.1277 25.4938 30 25.7038 30 26.2078V36.4975V53.1289C30 57.2028 31.405 60.6886 34.428 63.7965C36.4291 65.8965 38.856 67.7864 42.177 69.7183C44.7317 71.1883 47.6269 72.5322 51.2459 73.9602C51.7143 74.1702 51.8846 74.1282 52.0549 74.0442C54.865 72.9102 58.186 71.5243 61.3367 69.6763C61.4609 69.6028 61.5815 69.5328 61.6996 69.4644C61.9861 69.2982 62.2575 69.1408 62.5288 68.9623C65.8499 66.9044 68.2342 64.9305 70.065 62.5786C72.3216 59.7647 73.386 56.6568 73.386 53.1709ZM56.9995 60.776V61C53.6518 61 50.3473 61 46.9995 60.9868V60.6311C46.9995 59.3262 46.998 58.0227 46.9964 56.7198C46.9932 54.1154 46.99 51.5129 46.9995 48.9046C46.9995 48.707 47.057 48.4961 47.1432 48.3117C47.3386 47.8848 47.5386 47.4579 47.7386 47.031C48.0386 46.3906 48.3386 45.7503 48.6231 45.1099C48.7668 44.7806 48.8386 44.4116 48.853 44.0559C48.8837 43.5962 48.878 43.1366 48.8721 42.6674C48.8698 42.4776 48.8674 42.2862 48.8674 42.0927H55.1317C55.1317 42.3045 55.135 42.5148 55.1382 42.7241C55.1445 43.1399 55.1508 43.5518 55.1317 43.9637C55.1174 44.4248 55.2179 44.8333 55.4191 45.2417C55.775 45.9784 56.1165 46.7217 56.4589 47.4669C56.6003 47.7746 56.7418 48.0827 56.8846 48.3907C56.9421 48.5225 56.9995 48.6806 56.9995 48.8255V60.776ZM53.5312 36.4531C53.9052 37.545 54.2788 38.636 54.6576 39.7342H49.3271C49.4241 39.4532 49.5209 39.1726 49.6175 38.8923C50.4091 36.5975 51.1929 34.3249 51.9995 32C52.5198 33.4994 53.0258 34.9771 53.5312 36.4531Z" fill="#404040"/>
</svg>
