<svg width="57" height="56" viewBox="0 0 57 56" fill="none" xmlns="http://www.w3.org/2000/svg">
<path fill-rule="evenodd" clip-rule="evenodd" d="M28.5 56C43.964 56 56.5 43.464 56.5 28C56.5 12.536 43.964 0 28.5 0C13.036 0 0.5 12.536 0.5 28C0.5 43.464 13.036 56 28.5 56Z" fill="#FF6F5E"/>
<path d="M23.7236 14.6758C21.4571 14.686 19.3281 15.5711 17.7244 17.1704C16.1113 18.7793 15.2229 20.9181 15.2229 23.1932V32.3644C15.2229 34.6395 16.1113 36.7785 17.7244 38.3872C19.3375 39.996 21.4821 40.8819 23.7635 40.8819H32.9594C35.2407 40.8819 37.3855 39.996 38.9986 38.3872C40.6117 36.7785 41.5 34.6395 41.5 32.3644V23.1932C41.5 20.9181 40.6117 18.7793 38.9986 17.1704C37.395 15.5711 35.2657 14.686 32.9994 14.6758H23.7236Z" fill="white"/>
<mask id="mask0" mask-type="alpha" maskUnits="userSpaceOnUse" x="15" y="14" width="27" height="27">
<path d="M23.7236 14.6758C21.4571 14.686 19.3281 15.5711 17.7244 17.1704C16.1113 18.7793 15.2229 20.9181 15.2229 23.1932V32.3644C15.2229 34.6395 16.1113 36.7785 17.7244 38.3871C19.3375 39.996 21.4821 40.8819 23.7635 40.8819H32.9594C35.2407 40.8819 37.3855 39.996 38.9986 38.3871C40.6117 36.7785 41.5 34.6395 41.5 32.3644V23.1932C41.5 20.9181 40.6117 18.7793 38.9986 17.1704C37.395 15.5711 35.2657 14.686 32.9994 14.6758H23.7236Z" fill="white"/>
</mask>
<g mask="url(#mask0)">
<mask id="path-4-outside-1" maskUnits="userSpaceOnUse" x="20.2532" y="19.4404" width="16" height="16" fill="black">
<rect fill="white" x="20.2532" y="19.4404" width="16" height="16"/>
<path fill-rule="evenodd" clip-rule="evenodd" d="M22.7273 30.8204C21.8893 29.9847 21.8893 28.6248 22.7273 27.7891L23.161 27.3566C23.1243 28.1476 23.4083 28.951 24.0129 29.5539L26.3233 31.8581C26.9276 32.461 27.7332 32.744 28.5266 32.7074L28.0928 33.1402C27.2549 33.9758 25.8915 33.9758 25.0533 33.1402L22.7273 30.8204ZM33.9881 27.2526L33.5454 27.694C33.5821 26.9039 33.2987 26.1017 32.6951 25.4999L30.3881 23.1991C29.7844 22.5971 28.9801 22.3142 28.1881 22.3508L28.6307 21.9093C29.4672 21.0751 30.8288 21.0751 31.6655 21.9093L33.9881 24.2257C34.825 25.0604 34.825 26.4181 33.9881 27.2526ZM26.9191 31.2837L24.5889 28.9598C23.7495 28.1226 23.7495 26.76 24.5889 25.9227L26.9191 23.5988C27.7587 22.7616 29.125 22.7616 29.9644 23.5988L32.2946 25.9227C33.1342 26.76 33.1342 28.1226 32.2946 28.9598L29.9644 31.2837C29.125 32.121 27.7587 32.121 26.9191 31.2837ZM22.1145 31.4251L24.4473 33.7518C25.229 34.5312 26.3441 34.78 27.3387 34.4988C27.915 34.7205 28.5929 34.5994 29.0578 34.1358C29.4117 33.7831 29.566 33.3069 29.5217 32.8461L33.6755 28.7034C34.1375 28.7475 34.6152 28.5936 34.9691 28.2407C35.4289 27.7821 35.5521 27.1153 35.3394 26.5445C35.6375 25.5439 35.3912 24.4146 34.6006 23.6261L32.2677 21.2996C31.4772 20.5113 30.3457 20.2655 29.3428 20.562C28.7699 20.3485 28.0995 20.4709 27.6388 20.9304C27.2843 21.284 27.13 21.7617 27.1753 22.2233L23.024 26.3633C22.5611 26.3181 22.0823 26.4719 21.7277 26.8255C21.262 27.29 21.1415 27.9677 21.3651 28.543C21.0835 29.5347 21.3333 30.646 22.1145 31.4251Z"/>
</mask>
<path fill-rule="evenodd" clip-rule="evenodd" d="M22.7273 30.8204C21.8893 29.9847 21.8893 28.6248 22.7273 27.7891L23.161 27.3566C23.1243 28.1476 23.4083 28.951 24.0129 29.5539L26.3233 31.8581C26.9276 32.461 27.7332 32.744 28.5266 32.7074L28.0928 33.1402C27.2549 33.9758 25.8915 33.9758 25.0533 33.1402L22.7273 30.8204ZM33.9881 27.2526L33.5454 27.694C33.5821 26.9039 33.2987 26.1017 32.6951 25.4999L30.3881 23.1991C29.7844 22.5971 28.9801 22.3142 28.1881 22.3508L28.6307 21.9093C29.4672 21.0751 30.8288 21.0751 31.6655 21.9093L33.9881 24.2257C34.825 25.0604 34.825 26.4181 33.9881 27.2526ZM26.9191 31.2837L24.5889 28.9598C23.7495 28.1226 23.7495 26.76 24.5889 25.9227L26.9191 23.5988C27.7587 22.7616 29.125 22.7616 29.9644 23.5988L32.2946 25.9227C33.1342 26.76 33.1342 28.1226 32.2946 28.9598L29.9644 31.2837C29.125 32.121 27.7587 32.121 26.9191 31.2837ZM22.1145 31.4251L24.4473 33.7518C25.229 34.5312 26.3441 34.78 27.3387 34.4988C27.915 34.7205 28.5929 34.5994 29.0578 34.1358C29.4117 33.7831 29.566 33.3069 29.5217 32.8461L33.6755 28.7034C34.1375 28.7475 34.6152 28.5936 34.9691 28.2407C35.4289 27.7821 35.5521 27.1153 35.3394 26.5445C35.6375 25.5439 35.3912 24.4146 34.6006 23.6261L32.2677 21.2996C31.4772 20.5113 30.3457 20.2655 29.3428 20.562C28.7699 20.3485 28.0995 20.4709 27.6388 20.9304C27.2843 21.284 27.13 21.7617 27.1753 22.2233L23.024 26.3633C22.5611 26.3181 22.0823 26.4719 21.7277 26.8255C21.262 27.29 21.1415 27.9677 21.3651 28.543C21.0835 29.5347 21.3333 30.646 22.1145 31.4251Z" fill="#FF6F5E"/>
<path d="M22.7273 30.8204L22.8685 30.6788L22.7273 30.8204ZM22.7273 27.7891L22.8685 27.9308L22.7273 27.7891ZM23.161 27.3566L23.3608 27.3659L23.3847 26.851L23.0198 27.215L23.161 27.3566ZM24.0129 29.5539L23.8716 29.6955L24.0129 29.5539ZM26.3233 31.8581L26.4645 31.7165L26.4645 31.7165L26.3233 31.8581ZM28.5266 32.7074L28.6678 32.849L29.0338 32.4838L28.5173 32.5076L28.5266 32.7074ZM28.0928 33.1402L28.234 33.2818L28.2341 33.2818L28.0928 33.1402ZM25.0533 33.1402L24.9121 33.2818L24.9121 33.2818L25.0533 33.1402ZM33.5454 27.694L33.3457 27.6848L33.3218 28.1996L33.6867 27.8356L33.5454 27.694ZM32.6951 25.4999L32.5538 25.6415L32.5539 25.6416L32.6951 25.4999ZM30.3881 23.1991L30.5293 23.0575L30.3881 23.1991ZM28.1881 22.3508L28.0468 22.2092L27.6806 22.5745L28.1973 22.5506L28.1881 22.3508ZM28.6307 21.9093L28.4895 21.7677L28.6307 21.9093ZM31.6655 21.9093L31.8067 21.7677L31.8067 21.7677L31.6655 21.9093ZM33.9881 24.2257L33.8469 24.3673L33.9881 24.2257ZM24.5889 28.9598L24.4476 29.1014L24.5889 28.9598ZM24.5889 25.9227L24.4476 25.7811L24.4476 25.7811L24.5889 25.9227ZM26.9191 23.5988L26.7778 23.4571L26.7778 23.4572L26.9191 23.5988ZM29.9644 23.5988L29.8232 23.7404L29.9644 23.5988ZM32.2946 25.9227L32.4358 25.7811L32.2946 25.9227ZM32.2946 28.9598L32.1534 28.8181L32.1533 28.8182L32.2946 28.9598ZM29.9644 31.2837L29.8232 31.1421L29.8231 31.1421L29.9644 31.2837ZM24.4473 33.7518L24.306 33.8934L24.306 33.8934L24.4473 33.7518ZM27.3387 34.4988L27.4106 34.3121L27.3484 34.2882L27.2843 34.3063L27.3387 34.4988ZM29.0578 34.1358L28.9166 33.9942L28.9165 33.9942L29.0578 34.1358ZM29.5217 32.8461L29.3805 32.7045L29.3136 32.7712L29.3227 32.8652L29.5217 32.8461ZM33.6755 28.7034L33.6945 28.5043L33.6009 28.4953L33.5342 28.5618L33.6755 28.7034ZM34.9691 28.2407L35.1103 28.3823L34.9691 28.2407ZM35.3394 26.5445L35.1477 26.4874L35.1286 26.5516L35.152 26.6144L35.3394 26.5445ZM34.6006 23.6261L34.7418 23.4844L34.7418 23.4844L34.6006 23.6261ZM32.2677 21.2996L32.1264 21.4412L32.1264 21.4413L32.2677 21.2996ZM29.3428 20.562L29.273 20.7494L29.3355 20.7727L29.3995 20.7538L29.3428 20.562ZM27.6388 20.9304L27.7801 21.072L27.6388 20.9304ZM27.1753 22.2233L27.3165 22.365L27.3836 22.2981L27.3743 22.2038L27.1753 22.2233ZM23.024 26.3633L23.0045 26.5623L23.0984 26.5715L23.1652 26.5049L23.024 26.3633ZM21.7277 26.8255L21.5865 26.6839L21.7277 26.8255ZM21.3651 28.543L21.5575 28.5976L21.5758 28.5331L21.5515 28.4705L21.3651 28.543ZM22.8685 30.6788C22.1089 29.9213 22.1089 28.6883 22.8685 27.9308L22.5861 27.6475C21.6698 28.5614 21.6698 30.0482 22.5861 30.962L22.8685 30.6788ZM22.8685 27.9308L23.3023 27.4982L23.0198 27.215L22.5861 27.6475L22.8685 27.9308ZM22.9612 27.3473C22.922 28.1922 23.2255 29.0511 23.8716 29.6955L24.1541 29.4123C23.5912 28.8509 23.3266 28.103 23.3608 27.3659L22.9612 27.3473ZM23.8716 29.6955L26.182 31.9997L26.4645 31.7165L24.1541 29.4123L23.8716 29.6955ZM26.182 31.9997C26.828 32.6441 27.689 32.9463 28.5358 32.9072L28.5173 32.5076C27.7774 32.5418 27.0272 32.2779 26.4645 31.7165L26.182 31.9997ZM28.3853 32.5658L27.9515 32.9986L28.2341 33.2818L28.6678 32.849L28.3853 32.5658ZM27.9516 32.9986C27.1917 33.7564 25.9547 33.7564 25.1945 32.9985L24.9121 33.2818C25.8283 34.1953 27.318 34.1953 28.234 33.2818L27.9516 32.9986ZM25.1946 32.9986L22.8685 30.6788L22.5861 30.962L24.9121 33.2818L25.1946 32.9986ZM33.8469 27.111L33.4042 27.5524L33.6867 27.8356L34.1293 27.3942L33.8469 27.111ZM33.7452 27.7033C33.7844 26.8594 33.4816 26.0016 32.8363 25.3583L32.5539 25.6416C33.1158 26.2018 33.3798 26.9485 33.3457 27.6848L33.7452 27.7033ZM32.8363 25.3583L30.5293 23.0575L30.2468 23.3407L32.5538 25.6415L32.8363 25.3583ZM30.5293 23.0575C29.8841 22.414 29.0243 22.112 28.1788 22.151L28.1973 22.5506C28.9358 22.5165 29.6848 22.7801 30.2468 23.3407L30.5293 23.0575ZM28.3293 22.4924L28.7719 22.051L28.4895 21.7677L28.0468 22.2092L28.3293 22.4924ZM28.7719 22.051C29.5303 21.2946 30.7656 21.2946 31.5243 22.051L31.8067 21.7677C30.8919 20.8557 29.404 20.8556 28.4895 21.7677L28.7719 22.051ZM31.5242 22.051L33.8469 24.3673L34.1293 24.0841L31.8067 21.7677L31.5242 22.051ZM33.8469 24.3673C34.6054 25.1239 34.6054 26.3546 33.8469 27.1109L34.1293 27.3942C35.0446 26.4816 35.0446 24.9969 34.1293 24.0841L33.8469 24.3673ZM27.0603 31.1421L24.7301 28.8182L24.4476 29.1014L26.7778 31.4253L27.0603 31.1421ZM24.7301 28.8182C23.9691 28.0592 23.969 26.8235 24.7301 26.0643L24.4476 25.7811C23.5299 26.6966 23.5299 28.1861 24.4476 29.1014L24.7301 28.8182ZM24.7301 26.0643L27.0603 23.7404L26.7778 23.4572L24.4476 25.7811L24.7301 26.0643ZM27.0603 23.7404C27.8218 22.9811 29.0618 22.9811 29.8232 23.7404L30.1056 23.4572C29.1881 22.5422 27.6955 22.5422 26.7778 23.4571L27.0603 23.7404ZM29.8232 23.7404L32.1533 26.0643L32.4358 25.7811L30.1056 23.4572L29.8232 23.7404ZM32.1533 26.0643C32.9146 26.8235 32.9146 28.0592 32.1534 28.8181L32.4358 29.1014C33.3538 28.1861 33.3538 26.6966 32.4358 25.7811L32.1533 26.0643ZM32.1533 28.8182L29.8232 31.1421L30.1056 31.4253L32.4358 29.1014L32.1533 28.8182ZM29.8231 31.1421C29.0618 31.9015 27.8219 31.9016 27.0603 31.1421L26.7778 31.4253C27.6955 32.3405 29.1881 32.3405 30.1056 31.4253L29.8231 31.1421ZM21.9733 31.5668L24.306 33.8934L24.5885 33.6102L22.2558 31.2835L21.9733 31.5668ZM24.306 33.8934C25.1413 34.7262 26.3321 34.9913 27.3932 34.6912L27.2843 34.3063C26.3561 34.5688 25.3167 34.3362 24.5885 33.6102L24.306 33.8934ZM27.2669 34.6855C27.9141 34.9344 28.6762 34.7988 29.199 34.2774L28.9165 33.9942C28.5096 34.4 27.9158 34.5065 27.4106 34.3121L27.2669 34.6855ZM29.199 34.2775C29.5971 33.8807 29.7705 33.3447 29.7208 32.827L29.3227 32.8652C29.3614 33.2691 29.2263 33.6855 28.9166 33.9942L29.199 34.2775ZM29.663 32.9877L33.8167 28.845L33.5342 28.5618L29.3805 32.7045L29.663 32.9877ZM33.6565 28.9025C34.175 28.952 34.7123 28.7793 35.1103 28.3823L34.8279 28.099C34.5181 28.408 34.1 28.543 33.6945 28.5043L33.6565 28.9025ZM35.1103 28.3823C35.6277 27.8663 35.7658 27.1161 35.5268 26.4747L35.152 26.6144C35.3383 27.1144 35.2302 27.6978 34.8279 28.099L35.1103 28.3823ZM35.531 26.6016C35.8493 25.5335 35.5867 24.327 34.7418 23.4844L34.4594 23.7677C35.1958 24.5021 35.4257 25.5543 35.1477 26.4874L35.531 26.6016ZM34.7418 23.4844L32.4089 21.158L32.1264 21.4413L34.4594 23.7677L34.7418 23.4844ZM32.4089 21.158C31.5644 20.3158 30.3561 20.0539 29.2861 20.3702L29.3995 20.7538C30.3354 20.4771 31.3901 20.7069 32.1264 21.4412L32.4089 21.158ZM29.4126 20.3746C28.7694 20.1349 28.0159 20.2719 27.4976 20.7888L27.7801 21.072C28.1832 20.6699 28.7704 20.5622 29.273 20.7494L29.4126 20.3746ZM27.4976 20.7888C27.0988 21.1865 26.9253 21.7242 26.9763 22.2429L27.3743 22.2038C27.3346 21.7992 27.4698 21.3815 27.7801 21.072L27.4976 20.7888ZM27.0341 22.0817L22.8827 26.2216L23.1652 26.5049L27.3165 22.365L27.0341 22.0817ZM23.0434 26.1642C22.5238 26.1135 21.9853 26.2862 21.5865 26.6839L21.8689 26.9672C22.1793 26.6576 22.5983 26.5226 23.0045 26.5623L23.0434 26.1642ZM21.5865 26.6839C21.0625 27.2065 20.9274 27.9688 21.1787 28.6154L21.5515 28.4705C21.3556 27.9665 21.4615 27.3736 21.8689 26.9672L21.5865 26.6839ZM21.1727 28.4884C20.8721 29.547 21.1385 30.7342 21.9733 31.5668L22.2558 31.2835C21.5281 30.5578 21.2949 29.5224 21.5575 28.5976L21.1727 28.4884Z" fill="#FF6F5E" mask="url(#path-4-outside-1)"/>
</g>
</svg>
