<svg width="32" height="32" viewBox="0 0 32 32" fill="none" xmlns="http://www.w3.org/2000/svg">
<path d="M21.2561 31.4935H10.2659C7.54814 31.4935 4.94128 30.4158 3.01687 28.4967C1.09246 26.5777 0.0075493 23.9738 0 21.2561L0 10.2659C0 7.54321 1.08158 4.93204 3.00681 3.00681C4.93204 1.08158 7.54321 0 10.2659 0L21.2561 0C23.9738 0.0075493 26.5777 1.09246 28.4967 3.01687C30.4158 4.94128 31.4935 7.54814 31.4935 10.2659V21.2561C31.4859 23.9689 30.4049 26.5684 28.4867 28.4867C26.5684 30.4049 23.9689 31.4859 21.2561 31.4935Z" fill="white"/>
<path d="M6.19849 21.7294L9.76304 25.294C10.332 25.8615 11.0424 26.2666 11.8205 26.4671C12.5987 26.6677 13.4164 26.6565 14.1888 26.4346C14.5803 26.5867 15.0043 26.636 15.4203 26.5776C15.8363 26.5193 16.2304 26.3553 16.565 26.1014C16.8996 25.8474 17.1636 25.512 17.3316 25.127C17.4997 24.742 17.5664 24.3204 17.5252 23.9024L23.8786 17.5546C24.2924 17.5927 24.7091 17.5257 25.0901 17.3599C25.4711 17.1942 25.8041 16.9349 26.0583 16.6062C26.3125 16.2776 26.4796 15.8901 26.5442 15.4796C26.6089 15.0692 26.5689 14.649 26.428 14.2581C26.6572 13.4782 26.6723 12.651 26.4716 11.8632C26.2709 11.0754 25.8618 10.3562 25.2873 9.78107L21.7285 6.19942C21.1533 5.62494 20.4341 5.21589 19.6464 5.01518C18.8586 4.81448 18.0314 4.82953 17.2514 5.05876C16.8596 4.91084 16.4365 4.86548 16.0222 4.92699C15.608 4.98849 15.2163 5.15483 14.8843 5.41021C14.5524 5.66559 14.2912 6.00155 14.1256 6.38621C13.9599 6.77087 13.8953 7.19148 13.9378 7.60813L7.59009 13.9616C7.17065 13.92 6.74757 13.9868 6.3613 14.1555C5.97503 14.3241 5.63848 14.5891 5.38385 14.925C5.12922 15.2608 4.96502 15.6564 4.90694 16.0739C4.84886 16.4914 4.89885 16.9168 5.05214 17.3094C4.8315 18.0814 4.82144 18.8984 5.02302 19.6756C5.22459 20.4528 5.63045 21.162 6.19849 21.7294ZM13.4245 21.6154L9.8771 18.0679C9.26414 17.4532 8.91994 16.6205 8.91994 15.7524C8.91994 14.8843 9.26414 14.0516 9.8771 13.4369L13.4245 9.89514C14.0393 9.28218 14.872 8.93797 15.7401 8.93797C16.6082 8.93797 17.4409 9.28218 18.0556 9.89514L21.5973 13.4369C22.2103 14.0516 22.5545 14.8843 22.5545 15.7524C22.5545 16.6205 22.2103 17.4532 21.5973 18.0679L18.0556 21.6154C17.4409 22.2283 16.6082 22.5725 15.7401 22.5725C14.872 22.5725 14.0393 22.2283 13.4245 21.6154ZM24.4376 15.2847L23.7589 15.9691C23.7894 15.3454 23.6889 14.7223 23.464 14.1398C23.2391 13.5573 22.8946 13.0284 22.4528 12.5871L18.9111 9.04535C18.4698 8.60357 17.9409 8.25912 17.3584 8.03417C16.7759 7.80923 16.1527 7.70878 15.529 7.7393L16.2077 7.06061C16.5139 6.75401 16.8775 6.51077 17.2778 6.34481C17.678 6.17885 18.1071 6.09342 18.5404 6.09342C18.9737 6.09342 19.4027 6.17885 19.803 6.34481C20.2032 6.51077 20.5668 6.75401 20.873 7.06061L24.4376 10.6252C25.055 11.2433 25.4019 12.0812 25.4019 12.9549C25.4019 13.8286 25.055 14.6666 24.4376 15.2847ZM7.05399 20.8739C6.74738 20.5678 6.50414 20.2042 6.33818 19.8039C6.17222 19.4036 6.0868 18.9746 6.0868 18.5413C6.0868 18.108 6.17222 17.679 6.33818 17.2787C6.50414 16.8784 6.74738 16.5148 7.05399 16.2087L7.71556 15.5471C7.68585 16.1698 7.78669 16.7919 8.01161 17.3733C8.23654 17.9548 8.58056 18.4828 9.02161 18.9234L12.5462 22.4709C12.9921 22.9178 13.5275 23.2652 14.1174 23.4903C14.7072 23.7155 15.3379 23.8131 15.9682 23.7769L15.2838 24.4385C14.9776 24.7451 14.614 24.9883 14.2138 25.1543C13.8135 25.3202 13.3845 25.4057 12.9512 25.4057C12.5179 25.4057 12.0888 25.3202 11.6886 25.1543C11.2883 24.9883 10.9247 24.7451 10.6185 24.4385L7.05399 20.8739Z" fill="#F06656"/>
</svg>
