<svg width="133" height="143" viewBox="0 0 133 143" fill="none" xmlns="http://www.w3.org/2000/svg">
<rect x="0.75" y="0.75" width="131.5" height="141.5" rx="17.25" stroke="black" stroke-width="1.5"/>
<path d="M41.6525 104.2V106.048H39.0065V114H37.0745V106.048H34.4425V104.2H41.6525ZM43.1816 111.242C43.4242 112.119 44.0822 112.558 45.1556 112.558C45.8462 112.558 46.3689 112.325 46.7236 111.858L48.1796 112.698C47.4889 113.697 46.4716 114.196 45.1276 114.196C43.9702 114.196 43.0416 113.846 42.3416 113.146C41.6416 112.446 41.2916 111.564 41.2916 110.5C41.2916 109.445 41.6369 108.568 42.3276 107.868C43.0182 107.159 43.9049 106.804 44.9876 106.804C46.0142 106.804 46.8589 107.159 47.5216 107.868C48.1936 108.577 48.5296 109.455 48.5296 110.5C48.5296 110.733 48.5062 110.981 48.4596 111.242H43.1816ZM43.1536 109.842H46.7236C46.6209 109.366 46.4062 109.011 46.0796 108.778C45.7622 108.545 45.3982 108.428 44.9876 108.428C44.5022 108.428 44.1009 108.554 43.7836 108.806C43.4662 109.049 43.2562 109.394 43.1536 109.842ZM53.8693 108.736H52.2873V111.648C52.2873 111.891 52.3479 112.068 52.4693 112.18C52.5906 112.292 52.7679 112.357 53.0013 112.376C53.2346 112.385 53.5239 112.381 53.8693 112.362V114C52.6279 114.14 51.7506 114.023 51.2373 113.65C50.7333 113.277 50.4813 112.609 50.4813 111.648V108.736H49.2633V107H50.4813V105.586L52.2873 105.04V107H53.8693V108.736ZM61.1679 113.132C60.4492 113.841 59.5719 114.196 58.5359 114.196C57.4999 114.196 56.6225 113.841 55.9039 113.132C55.1945 112.413 54.8399 111.536 54.8399 110.5C54.8399 109.464 55.1945 108.591 55.9039 107.882C56.6225 107.163 57.4999 106.804 58.5359 106.804C59.5719 106.804 60.4492 107.163 61.1679 107.882C61.8865 108.591 62.2459 109.464 62.2459 110.5C62.2459 111.536 61.8865 112.413 61.1679 113.132ZM57.1779 111.886C57.5419 112.25 57.9945 112.432 58.5359 112.432C59.0772 112.432 59.5299 112.25 59.8939 111.886C60.2579 111.522 60.4399 111.06 60.4399 110.5C60.4399 109.94 60.2579 109.478 59.8939 109.114C59.5299 108.75 59.0772 108.568 58.5359 108.568C57.9945 108.568 57.5419 108.75 57.1779 109.114C56.8232 109.478 56.6459 109.94 56.6459 110.5C56.6459 111.06 56.8232 111.522 57.1779 111.886ZM69.2424 108.988C69.2424 109.175 69.3637 109.329 69.6064 109.45C69.8584 109.562 70.1617 109.665 70.5164 109.758C70.871 109.842 71.2257 109.954 71.5804 110.094C71.935 110.225 72.2337 110.449 72.4764 110.766C72.7284 111.083 72.8544 111.48 72.8544 111.956C72.8544 112.675 72.5837 113.23 72.0424 113.622C71.5104 114.005 70.843 114.196 70.0404 114.196C68.603 114.196 67.623 113.641 67.1004 112.53L68.6684 111.648C68.8737 112.255 69.331 112.558 70.0404 112.558C70.6844 112.558 71.0064 112.357 71.0064 111.956C71.0064 111.769 70.8804 111.62 70.6284 111.508C70.3857 111.387 70.087 111.279 69.7324 111.186C69.3777 111.093 69.023 110.976 68.6684 110.836C68.3137 110.696 68.0104 110.477 67.7584 110.178C67.5157 109.87 67.3944 109.487 67.3944 109.03C67.3944 108.339 67.6464 107.798 68.1504 107.406C68.6637 107.005 69.2984 106.804 70.0544 106.804C70.6237 106.804 71.1417 106.935 71.6084 107.196C72.075 107.448 72.4437 107.812 72.7144 108.288L71.1744 109.128C70.9504 108.652 70.577 108.414 70.0544 108.414C69.821 108.414 69.625 108.465 69.4664 108.568C69.317 108.671 69.2424 108.811 69.2424 108.988ZM80.1641 113.132C79.4454 113.841 78.5681 114.196 77.5321 114.196C76.4961 114.196 75.6188 113.841 74.9001 113.132C74.1908 112.413 73.8361 111.536 73.8361 110.5C73.8361 109.464 74.1908 108.591 74.9001 107.882C75.6188 107.163 76.4961 106.804 77.5321 106.804C78.5681 106.804 79.4454 107.163 80.1641 107.882C80.8828 108.591 81.2421 109.464 81.2421 110.5C81.2421 111.536 80.8828 112.413 80.1641 113.132ZM76.1741 111.886C76.5381 112.25 76.9908 112.432 77.5321 112.432C78.0734 112.432 78.5261 112.25 78.8901 111.886C79.2541 111.522 79.4361 111.06 79.4361 110.5C79.4361 109.94 79.2541 109.478 78.8901 109.114C78.5261 108.75 78.0734 108.568 77.5321 108.568C76.9908 108.568 76.5381 108.75 76.1741 109.114C75.8194 109.478 75.6421 109.94 75.6421 110.5C75.6421 111.06 75.8194 111.522 76.1741 111.886ZM82.7926 114V103.78H84.5986V114H82.7926ZM91.8516 107H93.6576V114H91.8516V113.174C91.3103 113.855 90.5496 114.196 89.5696 114.196C88.6363 114.196 87.8336 113.841 87.1616 113.132C86.4989 112.413 86.1676 111.536 86.1676 110.5C86.1676 109.464 86.4989 108.591 87.1616 107.882C87.8336 107.163 88.6363 106.804 89.5696 106.804C90.5496 106.804 91.3103 107.145 91.8516 107.826V107ZM88.5196 111.928C88.8836 112.292 89.3456 112.474 89.9056 112.474C90.4656 112.474 90.9276 112.292 91.2916 111.928C91.6649 111.555 91.8516 111.079 91.8516 110.5C91.8516 109.921 91.6649 109.45 91.2916 109.086C90.9276 108.713 90.4656 108.526 89.9056 108.526C89.3456 108.526 88.8836 108.713 88.5196 109.086C88.1556 109.45 87.9736 109.921 87.9736 110.5C87.9736 111.079 88.1556 111.555 88.5196 111.928ZM97.3813 108.204C97.5493 107.756 97.8246 107.42 98.2073 107.196C98.5993 106.972 99.0333 106.86 99.5093 106.86V108.876C98.9586 108.811 98.4639 108.923 98.0253 109.212C97.5959 109.501 97.3813 109.982 97.3813 110.654V114H95.5753V107H97.3813V108.204Z" fill="#404040"/>
<path d="M103.261 47.2787C103.229 45.4686 102.054 44.0714 100.276 43.8491C99.4821 43.7538 98.5929 43.7221 97.8308 43.9444C96.6876 44.2937 95.6079 44.897 94.4329 45.4369C94.4012 45.3416 91.7337 41.8485 90.4635 39.1175C89.0345 36.069 86.8751 33.9731 83.9535 32.9569C83.4137 34.9258 82.4293 35.4021 79.73 35.4339C78.4281 35.4339 77.1261 35.5291 75.7606 35.6561C75.4113 35.6879 75.062 35.7197 74.7127 35.7197V36.4183H80.1429C81.9529 36.4183 83.5725 37.4662 84.3029 39.1175L88.9392 46.5801H74.7127H73.1249V36.4183V34.9575C73.1249 34.5447 73.4424 34.1954 73.8552 34.1636C74.4586 34.1319 75.0302 34.0684 75.6336 34.0366C76.9673 33.9413 78.3646 33.8143 79.73 33.8143C79.8888 33.8143 80.0158 33.8143 80.1429 33.8143C80.1429 33.8143 80.1429 33.8143 80.1746 33.8143C80.3016 33.8143 80.4287 33.8143 80.5239 33.8143H80.5557C80.905 33.8143 81.1908 33.7826 81.4131 33.7191H81.4449C81.5084 33.6873 81.5719 33.6873 81.6354 33.6555C81.6354 33.6555 81.6354 33.6555 81.6671 33.6555C81.7942 33.592 81.9212 33.5285 81.9847 33.465C82.0165 33.4333 82.08 33.3697 82.1117 33.338C82.1117 33.338 82.1117 33.338 82.1117 33.3062C82.2387 33.1157 82.334 32.8934 82.4293 32.5441C82.5245 32.1948 82.5881 31.7502 82.6833 31.2104C82.8739 29.8766 83.1279 28.5746 83.3502 27.2727C83.509 26.3517 83.6677 25.4626 83.8265 24.5417C83.8583 24.3511 83.89 24.1924 83.89 24.0336C83.89 23.3985 83.636 23.0174 83.0326 22.6998C82.6198 22.4775 81.8577 22.5411 81.5401 23.0174C81.2543 23.4302 81.032 24.0018 80.8732 24.8275C80.651 26.0342 80.4604 27.2727 80.3016 28.4476C80.2381 28.9875 80.1429 29.4956 80.0794 30.0354C80.0158 30.4165 79.6983 30.7023 79.2855 30.7023H55.3099C54.9289 30.7023 54.6113 30.4482 54.5161 30.0672C54.4843 29.9719 54.4843 29.8766 54.4525 29.7814C54.4208 29.5908 54.389 29.432 54.3573 29.2415C54.2302 28.6064 54.135 28.003 54.008 27.3679C53.8174 26.2565 53.5951 25.0815 53.3728 23.9383C53.1823 22.9856 52.5154 22.414 51.7215 22.5411C50.9594 22.6681 50.5783 23.335 50.7054 24.2876C51.1182 27.3044 51.4675 29.7496 51.8486 32.036C51.8803 32.2583 51.9438 32.4488 52.0074 32.6076C52.0391 32.6711 52.0391 32.7029 52.0709 32.7664C52.1026 32.7981 52.1026 32.8617 52.1344 32.8934C52.1661 32.9569 52.1979 32.9887 52.2296 33.0522C52.2614 33.0839 52.2932 33.1157 52.2932 33.1475C52.3249 33.1792 52.3567 33.2427 52.4202 33.2745C52.4519 33.3062 52.4837 33.338 52.5154 33.338C52.579 33.3697 52.6107 33.4015 52.6742 33.4333C52.706 33.465 52.7377 33.465 52.7695 33.4968C52.833 33.5285 52.8965 33.5603 52.96 33.5603C52.9918 33.5603 53.0235 33.592 53.087 33.592C53.1506 33.6238 53.2458 33.6238 53.3411 33.6555C53.3728 33.6555 53.4046 33.6555 53.4681 33.6873C53.5951 33.7191 53.7539 33.7191 53.8809 33.7191C55.1512 33.7826 56.4531 33.8461 57.6916 33.9096C58.4855 33.9731 59.3112 34.0049 60.1368 34.0684L60.7719 34.1001C61.1847 34.1319 61.5023 34.4812 61.5023 34.894V36.323V46.4848H59.9145H45.4022L49.8797 39.0858C50.6101 37.4027 52.2296 36.323 54.0715 36.323H59.851V35.6244C59.0889 35.5609 58.295 35.5291 57.5328 35.4656C56.2944 35.4021 54.9924 35.3068 53.7539 35.2751C51.9121 35.2116 50.8006 34.3859 50.3878 32.8299C47.4663 33.8461 45.2434 35.8149 43.7826 38.8635C42.5124 41.5627 39.7497 45.1511 39.5909 45.4686C36.9869 43.7856 36.2248 43.5633 33.9384 43.7856C32.1283 43.9761 30.7946 45.3416 30.7311 47.1835C30.6993 48.1044 30.6993 49.0253 30.7311 49.9144C30.7946 51.661 31.906 52.963 33.5891 53.344C34.3195 53.5028 35.1133 53.4711 35.9707 53.5346C35.8755 53.6934 35.8437 53.8204 35.7802 53.9156C33.9384 56.3926 33.1127 59.2506 33.081 62.2991C32.9857 68.2692 33.0175 74.2393 33.0492 80.2093C33.0492 82.337 34.383 83.7342 36.5423 83.8612C37.9078 83.9565 39.2733 83.893 40.6706 83.893C43.6239 83.893 44.9576 82.591 44.9576 79.6377V77.5736H60.0098V77.6054H89.225C89.225 78.558 89.225 79.3837 89.225 80.2093C89.2885 82.4957 90.6857 83.893 92.9722 83.9248C94.2424 83.9248 95.5126 83.9248 96.7828 83.9248C99.6091 83.9248 100.911 82.6228 100.911 79.7965C100.911 74.144 100.911 68.5233 100.911 62.9025C100.911 59.7269 100.117 56.7737 98.4024 54.1062C98.3071 53.9474 98.2436 53.7569 98.0848 53.4393C98.6564 53.4393 99.1328 53.4393 99.6091 53.4393C101.768 53.3758 103.261 51.8515 103.293 49.6921C103.293 48.93 103.293 48.1044 103.261 47.2787ZM54.5478 62.3627C54.4208 63.6964 53.3728 64.7443 51.9121 64.8714C50.7371 64.9666 49.5622 64.9031 48.3872 64.9031V64.9666C47.4345 64.9666 46.4501 64.9666 45.4974 64.9666C43.5921 64.9666 42.4171 63.8552 42.3854 61.9498C42.3854 61.4417 42.3854 60.9337 42.3854 60.4256C42.4489 58.5202 44.0684 57.1865 45.942 57.6311C48.1014 58.1392 50.2608 58.7108 52.4202 59.3141C53.8492 59.7269 54.6748 60.9654 54.5478 62.3627ZM91.7337 62.3627C91.5749 63.9504 90.527 64.8714 88.9392 64.9031C87.8912 64.9349 86.8116 64.9031 85.7636 64.9031C84.7474 64.9031 83.6995 64.9349 82.6516 64.9031C81.0955 64.8714 80.0159 63.9504 79.7936 62.4579C79.5713 61.1242 80.4287 59.7269 81.8259 59.3459C84.0171 58.7108 86.2082 58.1392 88.4311 57.6311C90.0824 57.25 91.5114 58.2979 91.7337 60.0127C91.8289 60.7431 91.8289 61.5688 91.7337 62.3627Z" fill="#404040"/>
<path d="M67.5676 28.0983C70.3939 28.0665 72.712 25.8754 72.6803 23.2397C72.6803 20.3499 70.3621 18 67.5041 18C64.7414 18 62.5502 20.2547 62.5502 23.1127C62.582 26.0659 64.6461 28.1301 67.5676 28.0983Z" fill="#404040"/>
</svg>
