<svg width="134" height="143" viewBox="0 0 134 143" fill="none" xmlns="http://www.w3.org/2000/svg">
<rect x="1.25" y="0.75" width="131.5" height="141.5" rx="17.25" stroke="black" stroke-width="1.5"/>
<path d="M22.5777 105.152V97.2H20.6457V107H26.3157V105.152H22.5777ZM32.7925 100V100.826C32.2885 100.196 31.5325 99.804 30.5105 99.804C28.6485 99.804 27.1085 101.414 27.1085 103.5C27.1085 105.586 28.6485 107.196 30.5105 107.196C31.5325 107.196 32.2885 106.804 32.7925 106.174V107H34.5985V100H32.7925ZM30.8465 105.474C29.7405 105.474 28.9145 104.676 28.9145 103.5C28.9145 102.324 29.7405 101.526 30.8465 101.526C31.9665 101.526 32.7925 102.324 32.7925 103.5C32.7925 104.676 31.9665 105.474 30.8465 105.474ZM41.1362 100V103.78C41.1362 104.998 40.4782 105.516 39.5962 105.516C38.7842 105.516 38.2102 105.026 38.2102 104.074V100H36.4042V104.298C36.4042 106.16 37.5662 107.196 39.0502 107.196C39.9882 107.196 40.7162 106.846 41.1362 106.216V107H42.9422V100H41.1362ZM50.1823 97.2V100.826C49.6783 100.182 48.9363 99.804 47.9143 99.804C46.0383 99.804 44.4983 101.414 44.4983 103.5C44.4983 105.586 46.0383 107.196 47.9143 107.196C48.9363 107.196 49.6783 106.818 50.1823 106.174V107H51.9883V97.2H50.1823ZM48.2503 105.474C47.1303 105.474 46.3043 104.676 46.3043 103.5C46.3043 102.324 47.1303 101.526 48.2503 101.526C49.3563 101.526 50.1823 102.324 50.1823 103.5C50.1823 104.676 49.3563 105.474 48.2503 105.474ZM57.2519 107.196C59.3099 107.196 60.9619 105.586 60.9619 103.5C60.9619 101.414 59.3099 99.804 57.2519 99.804C55.1939 99.804 53.5559 101.414 53.5559 103.5C53.5559 105.586 55.1939 107.196 57.2519 107.196ZM57.2519 105.432C56.1879 105.432 55.3619 104.634 55.3619 103.5C55.3619 102.366 56.1879 101.568 57.2519 101.568C58.3299 101.568 59.1559 102.366 59.1559 103.5C59.1559 104.634 58.3299 105.432 57.2519 105.432ZM70.2964 101.736V100H68.7144V98.04L66.9084 98.586V100H65.6904V101.736H66.9084V104.648C66.9084 106.538 67.7624 107.28 70.2964 107V105.362C69.2604 105.418 68.7144 105.404 68.7144 104.648V101.736H70.2964ZM77.049 97.144H74.879L73.759 99.062H75.495L77.049 97.144ZM73.157 104.242H78.435C78.477 104.004 78.505 103.766 78.505 103.5C78.505 101.442 77.035 99.804 74.963 99.804C72.765 99.804 71.267 101.414 71.267 103.5C71.267 105.586 72.751 107.196 75.103 107.196C76.447 107.196 77.497 106.65 78.155 105.698L76.699 104.858C76.391 105.264 75.831 105.558 75.131 105.558C74.179 105.558 73.409 105.166 73.157 104.242ZM73.129 102.842C73.339 101.946 73.997 101.428 74.963 101.428C75.719 101.428 76.475 101.834 76.699 102.842H73.129ZM83.3231 107.196C84.6951 107.196 85.8851 106.468 86.4871 105.376L84.9191 104.48C84.6391 105.054 84.0371 105.404 83.3091 105.404C82.2311 105.404 81.4331 104.606 81.4331 103.5C81.4331 102.38 82.2311 101.582 83.3091 101.582C84.0231 101.582 84.6251 101.946 84.9051 102.52L86.4591 101.61C85.8851 100.532 84.6951 99.804 83.3231 99.804C81.1951 99.804 79.6271 101.414 79.6271 103.5C79.6271 105.586 81.1951 107.196 83.3231 107.196ZM91.669 99.804C90.731 99.804 90.003 100.154 89.583 100.784V100H87.777V107H89.583V103.22C89.583 102.002 90.241 101.484 91.123 101.484C91.935 101.484 92.509 101.974 92.509 102.926V107H94.315V102.702C94.315 100.84 93.153 99.804 91.669 99.804ZM97.0331 99.16C97.6491 99.16 98.1531 98.656 98.1531 98.054C98.1531 97.452 97.6491 96.934 97.0331 96.934C96.4311 96.934 95.9271 97.452 95.9271 98.054C95.9271 98.656 96.4311 99.16 97.0331 99.16ZM96.1371 107H97.9431V100H96.1371V107ZM103.208 107.196C104.58 107.196 105.77 106.468 106.372 105.376L104.804 104.48C104.524 105.054 103.922 105.404 103.194 105.404C102.116 105.404 101.318 104.606 101.318 103.5C101.318 102.38 102.116 101.582 103.194 101.582C103.908 101.582 104.51 101.946 104.79 102.52L106.344 101.61C105.77 100.532 104.58 99.804 103.208 99.804C101.08 99.804 99.512 101.414 99.512 103.5C99.512 105.586 101.08 107.196 103.208 107.196ZM110.83 107.196C112.888 107.196 114.54 105.586 114.54 103.5C114.54 101.414 112.888 99.804 110.83 99.804C108.772 99.804 107.134 101.414 107.134 103.5C107.134 105.586 108.772 107.196 110.83 107.196ZM110.83 105.432C109.766 105.432 108.94 104.634 108.94 103.5C108.94 102.366 109.766 101.568 110.83 101.568C111.908 101.568 112.734 102.366 112.734 103.5C112.734 104.634 111.908 105.432 110.83 105.432ZM34.5444 116.16C35.1604 116.16 35.6644 115.656 35.6644 115.054C35.6644 114.452 35.1604 113.934 34.5444 113.934C33.9424 113.934 33.4384 114.452 33.4384 115.054C33.4384 115.656 33.9424 116.16 34.5444 116.16ZM33.6484 124H35.4544V117H33.6484V124ZM45.1294 116.804C44.1774 116.804 43.4774 117.182 43.0434 117.812C42.6514 117.168 42.0074 116.804 41.1394 116.804C40.2434 116.804 39.5854 117.154 39.1934 117.742V117H37.3874V124H39.1934V120.066C39.1934 119.016 39.7394 118.484 40.5094 118.484C41.2654 118.484 41.6854 118.988 41.6854 119.814V124H43.4914V120.066C43.4914 119.016 43.9954 118.484 44.7934 118.484C45.5494 118.484 45.9694 118.988 45.9694 119.814V124H47.7754V119.688C47.7754 117.938 46.7254 116.804 45.1294 116.804ZM53.6632 116.804C52.6412 116.804 51.8992 117.182 51.3952 117.826V117H49.5892V126.8H51.3952V123.174C51.8992 123.818 52.6412 124.196 53.6632 124.196C55.5392 124.196 57.0792 122.586 57.0792 120.5C57.0792 118.414 55.5392 116.804 53.6632 116.804ZM53.3272 122.474C52.2212 122.474 51.3952 121.676 51.3952 120.5C51.3952 119.324 52.2212 118.526 53.3272 118.526C54.4472 118.526 55.2732 119.324 55.2732 120.5C55.2732 121.676 54.4472 122.474 53.3272 122.474ZM60.1589 121.242H65.4369C65.4789 121.004 65.5069 120.766 65.5069 120.5C65.5069 118.442 64.0369 116.804 61.9649 116.804C59.7669 116.804 58.2689 118.414 58.2689 120.5C58.2689 122.586 59.7529 124.196 62.1049 124.196C63.4489 124.196 64.4989 123.65 65.1569 122.698L63.7009 121.858C63.3929 122.264 62.8329 122.558 62.1329 122.558C61.1809 122.558 60.4109 122.166 60.1589 121.242ZM60.1309 119.842C60.3409 118.946 60.9989 118.428 61.9649 118.428C62.7209 118.428 63.4769 118.834 63.7009 119.842H60.1309ZM70.325 124.196C71.697 124.196 72.887 123.468 73.489 122.376L71.921 121.48C71.641 122.054 71.039 122.404 70.311 122.404C69.233 122.404 68.435 121.606 68.435 120.5C68.435 119.38 69.233 118.582 70.311 118.582C71.025 118.582 71.627 118.946 71.907 119.52L73.461 118.61C72.887 117.532 71.697 116.804 70.325 116.804C68.197 116.804 66.629 118.414 66.629 120.5C66.629 122.586 68.197 124.196 70.325 124.196ZM80.2848 114.2H78.1148L76.9948 116.118H78.7308L80.2848 114.2ZM79.9348 117V117.826C79.4308 117.196 78.6748 116.804 77.6528 116.804C75.7908 116.804 74.2508 118.414 74.2508 120.5C74.2508 122.586 75.7908 124.196 77.6528 124.196C78.6748 124.196 79.4308 123.804 79.9348 123.174V124H81.7408V117H79.9348ZM77.9888 122.474C76.8828 122.474 76.0568 121.676 76.0568 120.5C76.0568 119.324 76.8828 118.526 77.9888 118.526C79.1088 118.526 79.9348 119.324 79.9348 120.5C79.9348 121.676 79.1088 122.474 77.9888 122.474ZM88.2645 117L86.5565 121.9L84.8625 117H82.8745L85.5345 124H87.5925L90.2525 117H88.2645ZM92.6559 121.242H97.9339C97.9759 121.004 98.0039 120.766 98.0039 120.5C98.0039 118.442 96.5339 116.804 94.4619 116.804C92.2639 116.804 90.7659 118.414 90.7659 120.5C90.7659 122.586 92.2499 124.196 94.6019 124.196C95.9459 124.196 96.9959 123.65 97.6539 122.698L96.1979 121.858C95.8899 122.264 95.3299 122.558 94.6299 122.558C93.6779 122.558 92.9079 122.166 92.6559 121.242ZM92.6279 119.842C92.8379 118.946 93.4959 118.428 94.4619 118.428C95.2179 118.428 95.9739 118.834 96.1979 119.842H92.6279ZM99.5446 124H101.351V113.78H99.5446V124Z" fill="#404040"/>
<g clip-path="url(#clip0)">
<path d="M53.1557 22.1807C53.1557 24.1443 53.1557 26.0261 53.1557 28.0716C52.5906 28.0716 52.1063 28.0716 51.5412 28.0716C50.4918 28.0716 49.6038 28.4807 49.0387 29.3807C48.7158 29.8716 48.5544 30.4443 48.3929 31.017C48.3122 31.2625 48.3929 31.5079 48.3929 31.7534C48.3929 44.9261 48.3929 58.017 48.3929 71.1898C48.3929 72.0079 48.5544 72.7443 48.958 73.4807C49.6038 74.4625 50.4918 74.7898 51.6219 74.7898C56.0618 74.7898 60.5016 74.7898 64.9415 74.7898C70.5115 74.7898 76.0815 74.7898 81.6516 74.7898C83.7504 74.7898 85.1227 73.317 85.1227 71.3534C85.1227 71.2716 85.1227 71.1898 85.1227 71.1079C85.1227 58.017 85.1227 44.9261 85.1227 31.8352C85.1227 30.6898 84.8806 29.6261 83.9926 28.8898C83.4275 28.3988 82.701 28.1534 81.9745 28.1534C81.4094 28.1534 80.925 28.1534 80.36 28.1534C80.36 26.1898 80.36 24.2261 80.36 22.2625C80.5214 22.2625 80.6829 22.2625 80.8443 22.2625C82.7817 22.2625 84.7191 22.2625 86.7372 22.2625C89.6433 22.2625 91.6614 24.3079 91.6614 27.1716C91.6614 32.8988 91.6614 38.6261 91.6614 44.2716C91.6614 54.8261 91.6614 65.3807 91.6614 75.9352C91.6614 77.8988 90.8542 79.4534 89.2397 80.4352C88.4325 80.9261 87.5445 81.0079 86.6565 81.0079C76.0815 81.0079 65.5066 81.0079 54.9316 81.0079C52.5099 81.0079 50.0074 81.0079 47.5857 81.0079C45.5675 81.0079 44.1145 80.1079 43.1458 78.2261C42.5807 77.4897 42.5 76.6716 42.5 75.8534C42.5 61.1261 42.5 46.4807 42.5 31.7534C42.5 30.1988 42.5 28.6443 42.5 27.0898C42.5 24.717 43.953 22.8352 46.0519 22.3443C46.3748 22.2625 46.7784 22.1807 47.1013 22.1807C48.958 22.1807 50.8954 22.1807 52.7521 22.1807C52.9135 22.1807 52.9942 22.1807 53.1557 22.1807Z" fill="#414141"/>
<path d="M55.6584 22.1807C57.1114 22.1807 58.5645 22.1807 59.9368 22.1807C60.744 22.1807 61.5513 22.1807 62.4393 22.1807C62.6814 22.1807 62.7621 22.0989 62.8429 21.8534C63.0043 20.2171 63.8923 18.9898 65.4261 18.4171C66.9598 17.7625 68.4129 18.008 69.7045 18.9898C70.5925 19.7262 71.1575 20.6262 71.2383 21.7716C71.2383 22.0989 71.3997 22.1807 71.7226 22.1807C73.8215 22.1807 75.9203 22.1807 77.9384 22.1807C78.342 22.1807 78.4228 22.2625 78.4228 22.6716C78.4228 25.2898 78.4228 27.908 78.4228 30.5262C78.4228 31.0171 78.1806 30.9353 77.8577 30.9353C71.3997 30.9353 64.9417 30.9353 58.4837 30.9353C57.6765 30.9353 56.8692 30.9353 55.9813 30.9353C55.7391 30.9353 55.5776 30.8534 55.5776 30.5262C55.5776 27.7443 55.5776 25.0443 55.5776 22.2625C55.5776 22.3443 55.6584 22.2625 55.6584 22.1807ZM67.0406 20.1353C66.0719 20.1353 65.2646 20.8716 65.2646 21.9353C65.2646 22.9171 66.0719 23.7353 67.0406 23.7353C68.0093 23.7353 68.8972 22.9171 68.8972 21.9353C68.8165 21.0353 68.0093 20.1353 67.0406 20.1353Z" fill="#414141"/>
<path d="M71.3191 41.4099C68.9781 41.4099 66.5563 41.4099 64.2153 41.4099C63.4888 41.4099 63.0044 40.7554 63.2466 40.1008C63.408 39.6917 63.7309 39.4463 64.2153 39.4463C65.6683 39.4463 67.1214 39.4463 68.4937 39.4463C71.8034 39.4463 75.1131 39.4463 78.4229 39.4463C79.1494 39.4463 79.553 39.8554 79.4723 40.4281C79.4723 41.0008 79.0687 41.4099 78.4229 41.4099C76.0011 41.4099 73.6601 41.4099 71.3191 41.4099Z" fill="#414141"/>
<path d="M71.3173 61.6992C73.6583 61.6992 75.9993 61.6992 78.3403 61.6992C78.9861 61.6992 79.3898 62.0265 79.4705 62.5992C79.5512 63.1719 79.2283 63.581 78.6632 63.6629C78.5018 63.6629 78.3403 63.6629 78.1789 63.6629C73.5776 63.6629 69.057 63.6629 64.4557 63.6629C64.3749 63.6629 64.2135 63.6629 64.1328 63.6629C63.487 63.581 63.1641 63.2538 63.1641 62.681C63.1641 62.1083 63.5677 61.6992 64.2135 61.6992C66.5545 61.6992 68.8955 61.6992 71.3173 61.6992Z" fill="#414141"/>
<path d="M71.3191 54.2549C73.6601 54.2549 76.0012 54.2549 78.3422 54.2549C78.988 54.2549 79.3109 54.5003 79.3916 54.9912C79.5531 55.6458 79.1494 56.1367 78.5844 56.2185C78.5036 56.2185 78.3422 56.2185 78.2615 56.2185C73.5794 56.2185 68.9781 56.2185 64.2961 56.2185C63.6503 56.2185 63.3274 55.9731 63.2466 55.564C63.0045 54.8276 63.4888 54.2549 64.2961 54.2549C66.5564 54.2549 68.8974 54.2549 71.3191 54.2549Z" fill="#414141"/>
<path d="M71.3173 48.8552C68.9763 48.8552 66.6352 48.8552 64.2135 48.8552C63.487 48.8552 63.1641 48.3643 63.1641 47.8734C63.1641 47.3007 63.5677 46.8916 64.2135 46.8916C68.9763 46.8916 73.6583 46.8916 78.4211 46.8916C78.8247 46.8916 79.2283 46.9734 79.3898 47.4643C79.5512 47.8734 79.5512 48.2825 79.2283 48.528C78.9861 48.6916 78.744 48.7734 78.4211 48.7734C75.9993 48.8552 73.6583 48.8552 71.3173 48.8552Z" fill="#414141"/>
<path d="M56.386 40.9994C57.5162 40.0994 58.4849 39.1994 59.5343 38.3812C59.9379 38.0539 60.4223 38.1357 60.6645 38.463C60.9066 38.7903 60.8259 39.1994 60.4223 39.5266C59.4536 40.3448 58.4849 41.163 57.5162 41.9812C57.3547 42.1448 57.1126 42.3085 56.9511 42.4721C56.5475 42.7176 56.2246 42.7176 55.9017 42.3903C55.3366 41.8176 54.7715 41.3266 54.2065 40.7539C53.8836 40.4266 53.8836 39.9357 54.1258 39.6903C54.4486 39.4448 54.8523 39.363 55.1752 39.6903C55.5788 40.0994 55.9824 40.5903 56.386 40.9994Z" fill="#414141"/>
<path d="M56.386 48.4427C57.4355 47.5427 58.4042 46.7246 59.4536 45.9064C59.5343 45.8246 59.6958 45.7427 59.7765 45.6609C60.0994 45.4973 60.4223 45.5791 60.6645 45.9064C60.9066 46.2336 60.9066 46.4791 60.6645 46.8064C60.5837 46.97 60.4223 47.0518 60.2608 47.1336C59.2114 48.0336 58.0813 48.9337 57.0318 49.8337C56.4668 50.2427 56.2246 50.2427 55.7402 49.7518C55.2559 49.2609 54.7715 48.77 54.2065 48.1973C53.8836 47.87 53.8836 47.3791 54.1258 47.1336C54.4486 46.8064 54.8523 46.8064 55.1752 47.2155C55.5788 47.5427 55.9824 48.0336 56.386 48.4427Z" fill="#414141"/>
<path d="M57.3515 57.0348C56.3828 57.0348 55.6562 56.2166 55.6562 55.2348C55.6562 54.253 56.4635 53.5166 57.4322 53.5166C58.4009 53.5166 59.1274 54.3348 59.1274 55.3166C59.0467 56.2984 58.3202 57.0348 57.3515 57.0348Z" fill="#414141"/>
<path d="M57.3515 60.9629C58.3202 60.9629 59.0467 61.6993 59.0467 62.6811C59.0467 63.6629 58.3202 64.4811 57.3515 64.4811C56.3828 64.4811 55.6562 63.6629 55.6562 62.6811C55.6562 61.6993 56.3828 60.9629 57.3515 60.9629Z" fill="#414141"/>
</g>
<defs>
<clipPath id="clip0">
<rect width="49" height="63" fill="white" transform="translate(42.5 18.0078)"/>
</clipPath>
</defs>
</svg>
