<svg width="22" height="22" viewBox="0 0 22 22" fill="none" xmlns="http://www.w3.org/2000/svg">
<path d="M12.8238 20C12.6485 20.3031 12.3968 20.5547 12.094 20.7295C11.7912 20.9044 11.4479 20.9965 11.0984 20.9965C10.749 20.9965 10.4056 20.9044 10.1028 20.7295C9.80002 20.5547 9.54835 20.3031 9.37301 20M21.0718 16H1.125C1.91853 16 2.67957 15.6839 3.24068 15.1213C3.80179 14.5587 4.11702 13.7956 4.11702 13V8C4.11702 6.14348 4.85256 4.36301 6.16182 3.05025C7.47108 1.7375 9.24683 1 11.0984 1C12.95 1 14.7257 1.7375 16.035 3.05025C17.3442 4.36301 18.0798 6.14348 18.0798 8V13C18.0798 13.7956 18.395 14.5587 18.9561 15.1213C19.5172 15.6839 20.2783 16 21.0718 16V16Z" stroke="black" stroke-width="2" stroke-linecap="round" stroke-linejoin="round"/>
</svg>
