<svg width="16" height="24" viewBox="0 0 24 24" fill="none" xmlns="http://www.w3.org/2000/svg">
<path d="M14.5 1L1.5 12L14.5 23" stroke="#FF6F5E" stroke-width="2" stroke-linecap="round" stroke-linejoin="round"/>
</svg>
