<svg width="18" height="11" viewBox="0 0 18 11" fill="none" xmlns="http://www.w3.org/2000/svg">
<path d="M9.06962 0.476004C8.3866 0.476004 7.70357 0.476004 7.03952 0.476004C5.67347 0.476004 4.30742 0.476004 2.94137 0.476004C2.69472 0.476004 2.4291 0.476004 2.20143 0.51395C1.29073 0.684706 0.683594 1.48157 0.683594 2.44919C0.683594 3.85318 0.683594 5.25718 0.683594 6.6422C0.683594 7.38214 0.683594 8.12209 0.683594 8.86203C0.702567 9.92451 1.48046 10.7214 2.56191 10.7403C3.71926 10.7593 4.89558 10.7403 6.05293 10.7403C7.85535 10.7403 9.63881 10.7403 11.4412 10.7403C12.8642 10.7403 14.2872 10.7403 15.7101 10.7403C16.0137 10.7403 16.2983 10.6455 16.5449 10.4937C17.209 10.0953 17.4936 9.50711 17.4936 8.72922C17.4936 6.60425 17.4936 4.47929 17.4936 2.35432C17.4936 1.27287 16.6778 0.457031 15.5963 0.457031C13.4144 0.476004 11.2325 0.476004 9.06962 0.476004Z" fill="#614CD4"/>
<path d="M5.90105 5.57961C5.88208 7.30614 7.30505 8.76706 9.03158 8.78603C10.7771 8.805 12.257 7.38204 12.276 5.67447C12.2949 3.90999 10.8909 2.43011 9.16439 2.41113C7.36197 2.41113 5.92003 3.81513 5.90105 5.57961ZM3.7002 3.6254C3.7002 3.98588 4.00376 4.28945 4.34527 4.28945C4.70576 4.28945 5.00933 3.98588 5.00933 3.6254C5.00933 3.26491 4.70576 2.98032 4.34527 2.98032C4.00376 2.96135 3.7002 3.26491 3.7002 3.6254ZM14.4578 7.60971C14.4578 7.24923 14.1922 6.94566 13.8128 6.94566C13.4523 6.94566 13.1487 7.21128 13.1487 7.57176C13.1297 7.95122 13.4143 8.25479 13.7938 8.25479C14.1543 8.25479 14.4578 7.9702 14.4578 7.60971Z" fill="white"/>
<path d="M17.4746 2.37337C17.4746 1.29191 16.6588 0.476074 15.5773 0.476074C13.4144 0.476074 11.2325 0.476074 9.06962 0.476074C8.3866 0.476074 7.70357 0.476074 7.03952 0.476074C5.67347 0.476074 4.30742 0.476074 2.94137 0.476074C2.69472 0.476074 2.4291 0.476074 2.20143 0.51402C1.29073 0.684776 0.683594 1.48164 0.683594 2.44926C0.683594 3.85325 0.683594 5.25725 0.683594 6.64227C0.683594 7.38221 0.683594 8.12216 0.683594 8.8621C0.702567 9.92458 1.48046 10.7214 2.56191 10.7404C3.71926 10.7594 4.89558 10.7404 6.05293 10.7404C7.85535 10.7404 9.63881 10.7404 11.4412 10.7404C12.8642 10.7404 14.2872 10.7404 15.7101 10.7404C16.0137 10.7404 16.2983 10.6456 16.5449 10.4938C17.209 10.0953 17.4936 9.50718 17.4936 8.72929C17.4746 6.6233 17.4936 4.49833 17.4746 2.37337ZM16.6398 7.85654C16.4121 7.93243 16.1655 7.98935 15.9568 8.08421C15.3686 8.34983 15.0081 8.82416 14.8374 9.45026C14.7994 9.5641 14.7615 9.60205 14.6477 9.60205C12.2571 9.60205 9.84751 9.60205 7.45692 9.60205C6.18574 9.60205 4.93353 9.60205 3.66234 9.60205C3.56748 9.60205 3.49158 9.60205 3.39672 9.60205C3.37775 9.50718 3.3398 9.43129 3.32083 9.3554C3.05521 8.59648 2.54294 8.10318 1.74608 7.93243C1.59429 7.89448 1.55635 7.85654 1.55635 7.70475C1.55635 6.66124 1.55635 5.63671 1.55635 4.5932C1.55635 4.17579 1.55635 3.73942 1.55635 3.35996C1.85991 3.24612 2.14451 3.15125 2.39116 3.01844C2.86548 2.75282 3.18802 2.33542 3.32083 1.80418C3.35877 1.65239 3.43467 1.61445 3.60542 1.61445C7.02055 1.61445 10.4167 1.61445 13.8318 1.61445C14.1733 1.61445 14.4959 1.61445 14.8374 1.61445C14.9133 1.61445 14.9702 1.61445 14.9892 1.72829C15.1789 2.56309 15.7291 3.05639 16.5449 3.26509C16.5829 3.26509 16.6019 3.28407 16.6398 3.30304C16.6398 4.83984 16.6398 6.35768 16.6398 7.85654Z" fill="white"/>
<path d="M9.16441 2.43037C7.36198 2.41139 5.92004 3.81539 5.90107 5.59884C5.88209 7.3064 7.30506 8.76732 9.0316 8.78629C10.7771 8.80526 12.257 7.3823 12.276 5.67473C12.2949 3.92923 10.8909 2.44934 9.16441 2.43037Z" fill="white"/>
<path d="M4.36432 2.96143C4.00383 2.96143 3.71924 3.26499 3.71924 3.62548C3.71924 3.98596 4.0228 4.28953 4.36432 4.28953C4.7248 4.28953 5.02837 3.98596 5.02837 3.62548C5.0094 3.26499 4.70583 2.96143 4.36432 2.96143Z" fill="white"/>
<path d="M13.8317 6.9458C13.4712 6.9458 13.1676 7.21142 13.1676 7.57191C13.1487 7.95137 13.4333 8.25493 13.8127 8.25493C14.1732 8.25493 14.4578 7.97034 14.4768 7.60985C14.4578 7.24937 14.1922 6.9458 13.8317 6.9458Z" fill="white"/>
</svg>
