<?xml version="1.0" encoding="UTF-8"?>
<svg width="21px" height="21px" viewBox="0 0 21 21" version="1.1" xmlns="http://www.w3.org/2000/svg" xmlns:xlink="http://www.w3.org/1999/xlink">
    <!-- Generator: sketchtool 63 (101010) - https://sketch.com -->
    <title>5D8E0348-1447-449B-A1BF-4060BCA095E4@2x</title>
    <desc>Created with sketchtool.</desc>
    <g id="App-v03-(aprovada)" stroke="none" stroke-width="1" fill="none" fill-rule="evenodd" stroke-linecap="round" stroke-linejoin="round">
        <g id="Profile_0" transform="translate(-34.000000, -238.000000)" stroke="#3A3A3A" stroke-width="2">
            <g id="Group-9" transform="translate(13.000000, 217.000000)">
                <g id="Group-8" transform="translate(22.000000, 22.000000)">
                    <g id="icone-carro-troca">
                        <g id="arrow-left">
                            <polyline id="Path" points="7 14 0 7 7 0"></polyline>
                        </g>
                        <g id="arrow-left-copy" transform="translate(15.500000, 12.000000) rotate(-180.000000) translate(-15.500000, -12.000000) translate(12.000000, 5.000000)">
                            <polyline id="Path" points="7 14 0 7 7 0"></polyline>
                        </g>
                    </g>
                </g>
            </g>
        </g>
    </g>
</svg>