<svg width="29" height="31" viewBox="0 0 29 31" fill="none" xmlns="http://www.w3.org/2000/svg">
<path d="M1.2972 5.93232H4.33091V26.4941C4.33091 27.5669 4.75708 28.5958 5.51565 29.3543C6.27422 30.1129 7.30307 30.5391 8.37586 30.5391H21.859C22.9318 30.5391 23.9606 30.1129 24.7192 29.3543C25.4778 28.5958 25.9039 27.5669 25.9039 26.4941V5.93232H28.2635C28.4423 5.93232 28.6138 5.86129 28.7402 5.73486C28.8666 5.60844 28.9377 5.43696 28.9377 5.25816C28.9377 5.07937 28.8666 4.90789 28.7402 4.78146C28.6138 4.65503 28.4423 4.58401 28.2635 4.58401H20.8478V3.90985C20.8478 3.01586 20.4926 2.15849 19.8605 1.52634C19.2283 0.894198 18.371 0.539063 17.477 0.539062H12.7579C11.8639 0.539062 11.0065 0.894198 10.3744 1.52634C9.74223 2.15849 9.38709 3.01586 9.38709 3.90985V4.58401H1.2972C1.11841 4.58401 0.946932 4.65503 0.820503 4.78146C0.694074 4.90789 0.623047 5.07937 0.623047 5.25816C0.623047 5.43696 0.694074 5.60844 0.820503 5.73486C0.946932 5.86129 1.11841 5.93232 1.2972 5.93232ZM24.5556 26.4941C24.5556 27.2093 24.2715 27.8952 23.7658 28.4009C23.2601 28.9066 22.5742 29.1907 21.859 29.1907H8.37586C7.66067 29.1907 6.97477 28.9066 6.46905 28.4009C5.96334 27.8952 5.67923 27.2093 5.67923 26.4941V5.93232H24.5556V26.4941ZM10.7354 3.90985C10.7354 3.37346 10.9485 2.85903 11.3278 2.47975C11.7071 2.10046 12.2215 1.88738 12.7579 1.88738H17.477C18.0134 1.88738 18.5278 2.10046 18.9071 2.47975C19.2864 2.85903 19.4995 3.37346 19.4995 3.90985V4.58401H10.7354V3.90985Z" fill="#FF6F5E"/>
<path d="M15.117 12.3365C14.9382 12.3365 14.7668 12.4075 14.6403 12.5339C14.5139 12.6604 14.4429 12.8318 14.4429 13.0106V25.1455C14.4429 25.3243 14.5139 25.4957 14.6403 25.6222C14.7668 25.7486 14.9382 25.8196 15.117 25.8196C15.2958 25.8196 15.4673 25.7486 15.5937 25.6222C15.7202 25.4957 15.7912 25.3243 15.7912 25.1455V13.0106C15.7912 12.8318 15.7202 12.6604 15.5937 12.5339C15.4673 12.4075 15.2958 12.3365 15.117 12.3365Z" fill="#FF6F5E"/>
<path d="M19.1621 13.0106V25.1455C19.1621 25.3243 19.2331 25.4957 19.3596 25.6222C19.486 25.7486 19.6575 25.8196 19.8363 25.8196C20.0151 25.8196 20.1865 25.7486 20.313 25.6222C20.4394 25.4957 20.5104 25.3243 20.5104 25.1455V13.0106C20.5104 12.8318 20.4394 12.6604 20.313 12.5339C20.1865 12.4075 20.0151 12.3365 19.8363 12.3365C19.6575 12.3365 19.486 12.4075 19.3596 12.5339C19.2331 12.6604 19.1621 12.8318 19.1621 13.0106Z" fill="#FF6F5E"/>
<path d="M10.3975 12.3365C10.2187 12.3365 10.0473 12.4075 9.92084 12.5339C9.79442 12.6604 9.72339 12.8318 9.72339 13.0106V25.1455C9.72339 25.3243 9.79442 25.4957 9.92084 25.6222C10.0473 25.7486 10.2187 25.8196 10.3975 25.8196C10.5763 25.8196 10.7478 25.7486 10.8742 25.6222C11.0007 25.4957 11.0717 25.3243 11.0717 25.1455V13.0106C11.0717 12.8318 11.0007 12.6604 10.8742 12.5339C10.7478 12.4075 10.5763 12.3365 10.3975 12.3365Z" fill="#FF6F5E"/>
</svg>
