<svg width="22" height="22" viewBox="0 0 22 22" fill="none" xmlns="http://www.w3.org/2000/svg">
<path d="M10.9961 4.88892V17.1111" stroke="#FF6F5E" stroke-width="1.7" stroke-linecap="round" stroke-linejoin="round"/>
<path d="M13.7752 7.11035H9.60851C9.09281 7.11035 8.59823 7.31521 8.23358 7.67987C7.86892 8.04452 7.66406 8.5391 7.66406 9.0548C7.66406 9.5705 7.86892 10.0651 8.23358 10.4297C8.59823 10.7944 9.09281 10.9992 9.60851 10.9992H12.3863C12.902 10.9992 13.3966 11.2041 13.7612 11.5688C14.1259 11.9334 14.3307 12.428 14.3307 12.9437C14.3307 13.4594 14.1259 13.954 13.7612 14.3186C13.3966 14.6833 12.902 14.8881 12.3863 14.8881H7.66406" stroke="#FF6F5E" stroke-width="1.7" stroke-linecap="round" stroke-linejoin="round"/>
<path d="M11 21C16.5228 21 21 16.5228 21 11C21 5.47715 16.5228 1 11 1C5.47715 1 1 5.47715 1 11C1 16.5228 5.47715 21 11 21Z" stroke="#FF6F5E" stroke-width="1.7" stroke-linecap="round" stroke-linejoin="round"/>
</svg>
