<svg width="16" height="16" viewBox="0 0 16 16" fill="none" xmlns="http://www.w3.org/2000/svg">
<path d="M12.6676 7.33301H3.33431C2.59793 7.33301 2.00098 7.92996 2.00098 8.66634V13.333C2.00098 14.0694 2.59793 14.6663 3.33431 14.6663H12.6676C13.404 14.6663 14.001 14.0694 14.001 13.333V8.66634C14.001 7.92996 13.404 7.33301 12.6676 7.33301Z" stroke="#3A3A3A" stroke-width="2" stroke-linecap="round" stroke-linejoin="round"/>
<path d="M4.67285 7.33398V4.66732C4.67285 3.78326 5.02404 2.93542 5.64916 2.3103C6.27428 1.68517 7.12213 1.33398 8.00618 1.33398C8.89024 1.33398 9.73809 1.68517 10.3632 2.3103C10.9883 2.93542 11.3395 3.78326 11.3395 4.66732V7.33398" stroke="#3A3A3A" stroke-width="2" stroke-linecap="round" stroke-linejoin="round"/>
</svg>
