<svg width="18" height="15" viewBox="0 0 18 15" fill="none" xmlns="http://www.w3.org/2000/svg">
<path d="M15.6286 2.14171C15.2456 1.77975 14.7907 1.49263 14.2901 1.29673C13.7895 1.10083 13.253 1 12.7111 1C12.1693 1 11.6327 1.10083 11.1321 1.29673C10.6315 1.49263 10.1767 1.77975 9.79363 2.14171L8.99863 2.89254L8.20363 2.14171C7.42986 1.41093 6.3804 1.00038 5.28613 1.00038C4.19185 1.00038 3.14239 1.41093 2.36862 2.14171C1.59486 2.87249 1.16016 3.86364 1.16016 4.89713C1.16016 5.93061 1.59486 6.92176 2.36862 7.65254L3.16362 8.40338L8.99863 13.9142L14.8336 8.40338L15.6286 7.65254C16.0119 7.29076 16.3159 6.8612 16.5233 6.38842C16.7307 5.91564 16.8375 5.40889 16.8375 4.89713C16.8375 4.38536 16.7307 3.87862 16.5233 3.40583C16.3159 2.93305 16.0119 2.5035 15.6286 2.14171V2.14171Z" stroke="#3A3A3A" stroke-width="2" stroke-linecap="round" stroke-linejoin="round"/>
</svg>
