<svg width="25" height="19" viewBox="0 0 25 19" fill="none" xmlns="http://www.w3.org/2000/svg">
<path d="M17.097 15.0094L20.9362 17.9729V15.0094H21.4282C22.5328 15.0094 23.4282 14.114 23.4282 13.0094V6.77173C23.4282 5.66716 22.5328 4.77173 21.4282 4.77173H12.2944C11.1898 4.77173 10.2944 5.66716 10.2944 6.77173V13.0094C10.2944 14.114 11.1898 15.0094 12.2944 15.0094H17.097Z" fill="white" stroke="#3A3A3A" stroke-width="2" stroke-linecap="round" stroke-linejoin="round"/>
<path d="M18.9834 9.89062H14.7402" stroke="#3A3A3A" stroke-width="2" stroke-linecap="round" stroke-linejoin="round"/>
<path d="M7.33118 11.2377L3.49206 14.2012V11.2377H3C1.89543 11.2377 1 10.3422 1 9.23766V3C1 1.89543 1.89543 1 3 1H12.1338C13.2384 1 14.1338 1.89543 14.1338 3V9.23766C14.1338 10.3422 13.2384 11.2377 12.1338 11.2377H7.33118Z" fill="white" stroke="#3A3A3A" stroke-width="2" stroke-linecap="round" stroke-linejoin="round"/>
<path d="M5.4458 6.11865H9.68904" stroke="#3A3A3A" stroke-width="2" stroke-linecap="round" stroke-linejoin="round"/>
</svg>
